<?xml version="1.0" encoding="utf-8"?>
<!-- Generator: Adobe Illustrator 19.2.1, SVG Export Plug-In . SVG Version: 6.00 Build 0)  -->
<svg version="1.1" id="Layer_1" xmlns="http://www.w3.org/2000/svg" xmlns:xlink="http://www.w3.org/1999/xlink" x="0px" y="0px"
	 viewBox="0 0 9.8 9.8" style="enable-background:new 0 0 9.8 9.8;" xml:space="preserve">
<style type="text/css">
	.st0{fill:#717171;}
</style>
<path class="st0" d="M7.7,6.8c1.2-1.7,1.1-4-0.4-5.6c-1.7-1.7-4.4-1.7-6,0c-1.7,1.7-1.7,4.4,0,6c1.5,1.5,3.9,1.6,5.6,0.4l1.9,1.9
	c0.2,0.2,0.6,0.2,0.9,0c0.2-0.2,0.2-0.6,0-0.9L7.7,6.8z M6.6,6.6c-0.6,0.6-1.4,1-2.3,1c-0.9,0-1.7-0.4-2.3-1C1.3,6,1,5.2,1,4.3
	c0-0.9,0.4-1.7,1-2.3c0.6-0.6,1.4-1,2.3-1c0.9,0,1.7,0.4,2.3,1c0.6,0.6,1,1.4,1,2.3C7.6,5.2,7.2,6,6.6,6.6z"/>
</svg>
